<?xml version="1.0" encoding="UTF-8" standalone="no"?>
<!-- Создано Microsoft Visio, экспорт SVG секция.svg секция -->

<svg
   xmlns:v="http://schemas.microsoft.com/visio/2003/SVGExtensions/"
   xmlns:dc="http://purl.org/dc/elements/1.1/"
   xmlns:cc="http://creativecommons.org/ns#"
   xmlns:rdf="http://www.w3.org/1999/02/22-rdf-syntax-ns#"
   xmlns:svg="http://www.w3.org/2000/svg"
   xmlns="http://www.w3.org/2000/svg"
   xmlns:sodipodi="http://sodipodi.sourceforge.net/DTD/sodipodi-0.dtd"
   xmlns:inkscape="http://www.inkscape.org/namespaces/inkscape"
   width="2in"
   height="0.5in"
   viewBox="0 0 144.00054 36.000004"
   xml:space="preserve"
   class="st4"
   version="1.1"
   id="svg30"
   sodipodi:docname="neigh_station.svg"
   inkscape:version="0.92.3 (2405546, 2018-03-11)"
   style="font-size:12px;overflow:visible;color-interpolation-filters:sRGB;fill:none;fill-rule:evenodd;stroke-linecap:square;stroke-miterlimit:3"><metadata
   id="metadata34"><rdf:RDF><cc:Work
       rdf:about=""><dc:format>image/svg+xml</dc:format><dc:type
         rdf:resource="http://purl.org/dc/dcmitype/StillImage" /><dc:title></dc:title></cc:Work></rdf:RDF></metadata><sodipodi:namedview
   pagecolor="#ffffff"
   bordercolor="#666666"
   borderopacity="1"
   objecttolerance="10"
   gridtolerance="10"
   guidetolerance="10"
   inkscape:pageopacity="0"
   inkscape:pageshadow="2"
   inkscape:window-width="1920"
   inkscape:window-height="1051"
   id="namedview32"
   showgrid="false"
   inkscape:zoom="3.96695"
   inkscape:cx="57.628838"
   inkscape:cy="43.423563"
   inkscape:window-x="0"
   inkscape:window-y="0"
   inkscape:window-maximized="1"
   inkscape:current-layer="g28" />
	<v:documentProperties
   v:langID="1049"
   v:metric="true"
   v:viewMarkup="false">
		<v:userDefs>
			<v:ud
   v:nameU="msvNoAutoConnect"
   v:val="VT0(1):26" />
		</v:userDefs>
	</v:documentProperties>

	<style
   type="text/css"
   id="style2">
	<![CDATA[
		.st1 {marker-start:url(#mrkr10-6);stroke:#000000;stroke-linecap:round;stroke-linejoin:round;stroke-width:0.75}
		.st2 {fill:#000000;fill-opacity:1;stroke:#000000;stroke-opacity:1;stroke-width:0.22935779816514}
		.st3 {stroke:#000000;stroke-linecap:round;stroke-linejoin:round;stroke-width:0.75}
		.st4 {fill:none;fill-rule:evenodd;font-size:12px;overflow:visible;stroke-linecap:square;stroke-miterlimit:3}
	]]>
	</style>

	<defs
   id="Markers"><meshgradient
     inkscape:collect="always"
     id="meshgradient827"
     gradientUnits="userSpaceOnUse"
     x="0"
     y="42.939999"><meshrow
       id="meshrow829"><meshpatch
         id="meshpatch831"><stop
           path="c 10.3933,0  20.7867,0  31.18,0"
           style="stop-color:#ffffff;stop-opacity:1"
           id="stop833" /><stop
           path="c 0,0  0,0  0,0"
           style="stop-color:#800080;stop-opacity:1"
           id="stop835" /><stop
           path="c -10.3933,0  -20.7867,0  -31.18,0"
           style="stop-color:#ffffff;stop-opacity:1"
           id="stop837" /><stop
           path="c 0,0  0,0  0,0"
           style="stop-color:#800080;stop-opacity:1"
           id="stop839" /></meshpatch></meshrow></meshgradient><meshgradient
     inkscape:collect="always"
     id="meshgradient853"
     gradientUnits="userSpaceOnUse"
     x="0"
     y="42.939999"><meshrow
       id="meshrow865"><meshpatch
         id="meshpatch863"><stop
           id="stop855"
           style="stop-color:#ffffff;stop-opacity:1"
           path="c 10.3933,0  20.7867,0  31.18,0" /><stop
           id="stop857"
           style="stop-color:#800080;stop-opacity:1"
           path="c 0,0  0,0  0,0" /><stop
           id="stop859"
           style="stop-color:#ffffff;stop-opacity:1"
           path="c -10.3933,0  -20.7867,0  -31.18,0" /><stop
           id="stop861"
           style="stop-color:#800080;stop-opacity:1"
           path="c 0,0  0,0  0,0" /></meshpatch></meshrow></meshgradient><meshgradient
     inkscape:collect="always"
     id="meshgradient888"
     gradientUnits="userSpaceOnUse"
     x="0"
     y="42.939999"><meshrow
       id="meshrow900"><meshpatch
         id="meshpatch898"><stop
           path="c 10.3933,0  20.7867,0  31.18,0"
           style="stop-color:#ffffff;stop-opacity:1"
           id="stop890" /><stop
           path="c 0,0  0,0  0,0"
           style="stop-color:#800080;stop-opacity:1"
           id="stop892" /><stop
           path="c -10.3933,0  -20.7867,0  -31.18,0"
           style="stop-color:#ffffff;stop-opacity:1"
           id="stop894" /><stop
           path="c 0,0  0,0  0,0"
           style="stop-color:#800080;stop-opacity:1"
           id="stop896" /></meshpatch></meshrow></meshgradient><meshgradient
     inkscape:collect="always"
     id="meshgradient902"
     gradientUnits="userSpaceOnUse"
     x="0"
     y="42.939999"><meshrow
       id="meshrow914"><meshpatch
         id="meshpatch912"><stop
           id="stop904"
           style="stop-color:#ffffff;stop-opacity:1"
           path="c 10.3933,0  20.7867,0  31.18,0" /><stop
           id="stop906"
           style="stop-color:#800080;stop-opacity:1"
           path="c 0,0  0,0  0,0" /><stop
           id="stop908"
           style="stop-color:#ffffff;stop-opacity:1"
           path="c -10.3933,0  -20.7867,0  -31.18,0" /><stop
           id="stop910"
           style="stop-color:#800080;stop-opacity:1"
           path="c 0,0  0,0  0,0" /></meshpatch></meshrow></meshgradient><meshgradient
     inkscape:collect="always"
     id="meshgradient937"
     gradientUnits="userSpaceOnUse"
     x="0"
     y="42.939999"><meshrow
       id="meshrow949"><meshpatch
         id="meshpatch947"><stop
           id="stop939"
           style="stop-color:#ffffff;stop-opacity:1"
           path="c 10.3933,0  20.7867,0  31.18,0" /><stop
           id="stop941"
           style="stop-color:#800080;stop-opacity:1"
           path="c 0,0  0,0  0,0" /><stop
           id="stop943"
           style="stop-color:#ffffff;stop-opacity:1"
           path="c -10.3933,0  -20.7867,0  -31.18,0" /><stop
           id="stop945"
           style="stop-color:#800080;stop-opacity:1"
           path="c 0,0  0,0  0,0" /></meshpatch></meshrow></meshgradient><meshgradient
     inkscape:collect="always"
     id="meshgradient951"
     gradientUnits="userSpaceOnUse"
     x="0"
     y="42.939999"><meshrow
       id="meshrow963"><meshpatch
         id="meshpatch961"><stop
           path="c 10.3933,0  20.7867,0  31.18,0"
           style="stop-color:#ffffff;stop-opacity:1"
           id="stop953" /><stop
           path="c 0,0  0,0  0,0"
           style="stop-color:#800080;stop-opacity:1"
           id="stop955" /><stop
           path="c -10.3933,0  -20.7867,0  -31.18,0"
           style="stop-color:#ffffff;stop-opacity:1"
           id="stop957" /><stop
           path="c 0,0  0,0  0,0"
           style="stop-color:#800080;stop-opacity:1"
           id="stop959" /></meshpatch></meshrow></meshgradient><meshgradient
     inkscape:collect="always"
     id="meshgradient986"
     gradientUnits="userSpaceOnUse"
     x="0"
     y="42.939999"><meshrow
       id="meshrow998"><meshpatch
         id="meshpatch996"><stop
           path="c 10.3933,0  20.7867,0  31.18,0"
           style="stop-color:#ffffff;stop-opacity:1"
           id="stop988" /><stop
           path="c 0,0  0,0  0,0"
           style="stop-color:#800080;stop-opacity:1"
           id="stop990" /><stop
           path="c -10.3933,0  -20.7867,0  -31.18,0"
           style="stop-color:#ffffff;stop-opacity:1"
           id="stop992" /><stop
           path="c 0,0  0,0  0,0"
           style="stop-color:#800080;stop-opacity:1"
           id="stop994" /></meshpatch></meshrow></meshgradient><meshgradient
     inkscape:collect="always"
     id="meshgradient1000"
     gradientUnits="userSpaceOnUse"
     x="0"
     y="42.939999"><meshrow
       id="meshrow1012"><meshpatch
         id="meshpatch1010"><stop
           id="stop1002"
           style="stop-color:#ffffff;stop-opacity:1"
           path="c 10.3933,0  20.7867,0  31.18,0" /><stop
           id="stop1004"
           style="stop-color:#800080;stop-opacity:1"
           path="c 0,0  0,0  0,0" /><stop
           id="stop1006"
           style="stop-color:#ffffff;stop-opacity:1"
           path="c -10.3933,0  -20.7867,0  -31.18,0" /><stop
           id="stop1008"
           style="stop-color:#800080;stop-opacity:1"
           path="c 0,0  0,0  0,0" /></meshpatch></meshrow></meshgradient><meshgradient
     inkscape:collect="always"
     id="meshgradient1084"
     gradientUnits="userSpaceOnUse"
     x="0"
     y="42.939999"><meshrow
       id="meshrow1096"><meshpatch
         id="meshpatch1094"><stop
           path="c 10.3933,0  20.7867,0  31.18,0"
           style="stop-color:#ffffff;stop-opacity:1"
           id="stop1086" /><stop
           path="c 0,0  0,0  0,0"
           style="stop-color:#800080;stop-opacity:1"
           id="stop1088" /><stop
           path="c -10.3933,0  -20.7867,0  -31.18,0"
           style="stop-color:#ffffff;stop-opacity:1"
           id="stop1090" /><stop
           path="c 0,0  0,0  0,0"
           style="stop-color:#800080;stop-opacity:1"
           id="stop1092" /></meshpatch></meshrow></meshgradient><meshgradient
     inkscape:collect="always"
     id="meshgradient1098"
     gradientUnits="userSpaceOnUse"
     x="0"
     y="42.939999"><meshrow
       id="meshrow1110"><meshpatch
         id="meshpatch1108"><stop
           id="stop1100"
           style="stop-color:#ffffff;stop-opacity:1"
           path="c 10.3933,0  20.7867,0  31.18,0" /><stop
           id="stop1102"
           style="stop-color:#800080;stop-opacity:1"
           path="c 0,0  0,0  0,0" /><stop
           id="stop1104"
           style="stop-color:#ffffff;stop-opacity:1"
           path="c -10.3933,0  -20.7867,0  -31.18,0" /><stop
           id="stop1106"
           style="stop-color:#800080;stop-opacity:1"
           path="c 0,0  0,0  0,0" /></meshpatch></meshrow></meshgradient><meshgradient
     inkscape:collect="always"
     id="meshgradient1133"
     gradientUnits="userSpaceOnUse"
     x="0"
     y="42.939999"><meshrow
       id="meshrow1145"><meshpatch
         id="meshpatch1143"><stop
           id="stop1135"
           style="stop-color:#ffffff;stop-opacity:1"
           path="c 10.3933,0  20.7867,0  31.18,0" /><stop
           id="stop1137"
           style="stop-color:#800080;stop-opacity:1"
           path="c 0,0  0,0  0,0" /><stop
           id="stop1139"
           style="stop-color:#ffffff;stop-opacity:1"
           path="c -10.3933,0  -20.7867,0  -31.18,0" /><stop
           id="stop1141"
           style="stop-color:#800080;stop-opacity:1"
           path="c 0,0  0,0  0,0" /></meshpatch></meshrow></meshgradient><meshgradient
     inkscape:collect="always"
     id="meshgradient1147"
     gradientUnits="userSpaceOnUse"
     x="0"
     y="42.939999"><meshrow
       id="meshrow1159"><meshpatch
         id="meshpatch1157"><stop
           path="c 10.3933,0  20.7867,0  31.18,0"
           style="stop-color:#ffffff;stop-opacity:1"
           id="stop1149" /><stop
           path="c 0,0  0,0  0,0"
           style="stop-color:#800080;stop-opacity:1"
           id="stop1151" /><stop
           path="c -10.3933,0  -20.7867,0  -31.18,0"
           style="stop-color:#ffffff;stop-opacity:1"
           id="stop1153" /><stop
           path="c 0,0  0,0  0,0"
           style="stop-color:#800080;stop-opacity:1"
           id="stop1155" /></meshpatch></meshrow></meshgradient></defs>
	<g
   v:mID="5"
   v:index="3"
   v:groupContext="foregroundPage"
   id="g28"
   transform="translate(0,-6.9367197)">
		<title
   id="title11">секция</title>
		<v:pageProperties
   v:drawingScale="0.0393701"
   v:pageScale="0.0393701"
   v:drawingUnits="24"
   v:shadowOffsetX="9"
   v:shadowOffsetY="-9"
   v:shadowType="1" />
		<v:layer
   v:name="Соединительная линия"
   v:index="0" />
		
		
		<g
   id="shape3-12"
   v:mID="3"
   v:groupContext="shape"
   transform="matrix(3.6685167,0,0,-1,5.2158866,75.008718)"
   style="fill:url(#meshgradient827);fill-opacity:1;stroke-width:0.45770544;stroke-miterlimit:3;stroke-dasharray:none">
			<title
   id="title23">Лист.3</title>
			<path
   d="M 0,42.94 H 31.18"
   class="st3"
   id="path25"
   inkscape:connector-curvature="0"
   style="fill:url(#meshgradient853);fill-opacity:1;stroke:#000000;stroke-width:0.45770544;stroke-linecap:round;stroke-linejoin:round;stroke-miterlimit:3;stroke-dasharray:none" />
		</g>
	<g
   id="shape3-12-3"
   v:mID="3"
   v:groupContext="shape"
   transform="matrix(3.6283818,0,0,-1,5.3358145,61.278257)"
   style="fill:url(#meshgradient902);fill-opacity:1;stroke-width:0.45770544;stroke-miterlimit:3;stroke-dasharray:none"><title
     id="title23-6">Лист.3</title><path
     d="M 0,42.94 H 31.18"
     class="st3"
     id="path25-7"
     inkscape:connector-curvature="0"
     style="fill:url(#meshgradient888);fill-opacity:1;stroke:#000000;stroke-width:0.45770544;stroke-linecap:round;stroke-linejoin:round;stroke-miterlimit:3;stroke-dasharray:none" /></g><g
   id="shape3-12-3-5"
   v:mID="3"
   v:groupContext="shape"
   transform="matrix(-9.7566703e-4,-0.2568882,-1.2269888,4.065761e-5,171.60506,18.336511)"
   style="fill:url(#meshgradient951);fill-opacity:1;stroke-width:0.45770544;stroke-miterlimit:3;stroke-dasharray:none"><title
     id="title23-6-3">Лист.3</title><path
     d="M 0,42.94 H 31.18"
     class="st3"
     id="path25-7-5"
     inkscape:connector-curvature="0"
     style="fill:url(#meshgradient937);fill-opacity:1;stroke:#000000;stroke-width:0.45770544;stroke-linecap:round;stroke-linejoin:round;stroke-miterlimit:3;stroke-dasharray:none" /></g><g
   id="shape3-12-3-5-6"
   v:mID="3"
   v:groupContext="shape"
   transform="matrix(-9.7566368e-4,-0.2568882,-1.2269888,4.065761e-5,172.31769,40.076746)"
   style="fill:url(#meshgradient1000);fill-opacity:1;stroke-width:0.45770544;stroke-miterlimit:3;stroke-dasharray:none"><title
     id="title23-6-3-2">Лист.3</title><path
     d="M 0,42.94 H 31.18"
     class="st3"
     id="path25-7-5-9"
     inkscape:connector-curvature="0"
     style="fill:url(#meshgradient986);fill-opacity:1;stroke:#000000;stroke-width:0.45770544;stroke-linecap:round;stroke-linejoin:round;stroke-miterlimit:3;stroke-dasharray:none" /></g><g
   id="shape3-12-3-5-9"
   v:mID="3"
   v:groupContext="shape"
   transform="matrix(-0.37298863,-0.44940253,-0.97285095,0.78159445,172.30306,-9.2108515)"
   style="fill:url(#meshgradient1098);fill-opacity:1;stroke-width:0.45770544;stroke-miterlimit:3;stroke-dasharray:none"><title
     id="title23-6-3-3">Лист.3</title><path
     d="M 0,42.94 H 31.18"
     class="st3"
     id="path25-7-5-6"
     inkscape:connector-curvature="0"
     style="fill:url(#meshgradient1084);fill-opacity:1;stroke:#000000;stroke-width:0.45770544;stroke-linecap:round;stroke-linejoin:round;stroke-miterlimit:3;stroke-dasharray:none" /></g><g
   id="shape3-12-3-5-9-0"
   v:mID="3"
   v:groupContext="shape"
   transform="matrix(0.3493518,-0.50427777,-1.0764178,-0.75729382,165.85743,72.592391)"
   style="fill:url(#meshgradient1147);fill-opacity:1;stroke-width:0.45770544;stroke-miterlimit:3;stroke-dasharray:none"><title
     id="title23-6-3-3-6">Лист.3</title><path
     d="M 0,42.94 H 31.18"
     class="st3"
     id="path25-7-5-6-2"
     inkscape:connector-curvature="0"
     style="fill:url(#meshgradient1133);fill-opacity:1;stroke:#000000;stroke-width:0.45770544;stroke-linecap:round;stroke-linejoin:round;stroke-miterlimit:3;stroke-dasharray:none" /></g></g>
</svg>