<?xml version="1.0" encoding="UTF-8" standalone="no"?>
<!-- Создано Microsoft Visio, экспорт SVG секция.svg секция -->

<svg
   xmlns:v="http://schemas.microsoft.com/visio/2003/SVGExtensions/"
   xmlns:dc="http://purl.org/dc/elements/1.1/"
   xmlns:cc="http://creativecommons.org/ns#"
   xmlns:rdf="http://www.w3.org/1999/02/22-rdf-syntax-ns#"
   xmlns:svg="http://www.w3.org/2000/svg"
   xmlns="http://www.w3.org/2000/svg"
   xmlns:xlink="http://www.w3.org/1999/xlink"
   xmlns:sodipodi="http://sodipodi.sourceforge.net/DTD/sodipodi-0.dtd"
   xmlns:inkscape="http://www.inkscape.org/namespaces/inkscape"
   width="183"
   height="57.248924"
   viewBox="0 0 137.25056 42.9367"
   xml:space="preserve"
   class="st4"
   version="1.1"
   id="svg30"
   sodipodi:docname="station.svg"
   inkscape:version="0.92.3 (2405546, 2018-03-11)"
   style="font-size:12px;overflow:visible;color-interpolation-filters:sRGB;fill:none;fill-rule:evenodd;stroke-linecap:square;stroke-miterlimit:3"><metadata
   id="metadata34"><rdf:RDF><cc:Work
       rdf:about=""><dc:format>image/svg+xml</dc:format><dc:type
         rdf:resource="http://purl.org/dc/dcmitype/StillImage" /><dc:title></dc:title></cc:Work></rdf:RDF></metadata><sodipodi:namedview
   pagecolor="#ffffff"
   bordercolor="#666666"
   borderopacity="1"
   objecttolerance="10"
   gridtolerance="10"
   guidetolerance="10"
   inkscape:pageopacity="0"
   inkscape:pageshadow="2"
   inkscape:window-width="1920"
   inkscape:window-height="1051"
   id="namedview32"
   showgrid="false"
   inkscape:zoom="1.983475"
   inkscape:cx="113.20729"
   inkscape:cy="115.05021"
   inkscape:window-x="0"
   inkscape:window-y="0"
   inkscape:window-maximized="1"
   inkscape:current-layer="g28"
   units="px" />
	<v:documentProperties
   v:langID="1049"
   v:metric="true"
   v:viewMarkup="false">
		<v:userDefs>
			<v:ud
   v:nameU="msvNoAutoConnect"
   v:val="VT0(1):26" />
		</v:userDefs>
	</v:documentProperties>

	<style
   type="text/css"
   id="style2">
	<![CDATA[
		.st1 {marker-start:url(#mrkr10-6);stroke:#000000;stroke-linecap:round;stroke-linejoin:round;stroke-width:0.75}
		.st2 {fill:#000000;fill-opacity:1;stroke:#000000;stroke-opacity:1;stroke-width:0.22935779816514}
		.st3 {stroke:#000000;stroke-linecap:round;stroke-linejoin:round;stroke-width:0.75}
		.st4 {fill:none;fill-rule:evenodd;font-size:12px;overflow:visible;stroke-linecap:square;stroke-miterlimit:3}
	]]>
	</style>

	<defs
   id="Markers">
		<g
   id="lend10">
			<path
   d="M 0,0.75 C -0.414214,0.75 -0.75,0.414214 -0.75,0 -0.75,-0.414214 -0.414214,-0.75 0,-0.75 0.414214,-0.75 0.75,-0.414214 0.75,0 0.75,0.414214 0.414214,0.75 0,0.75 Z"
   style="stroke:none"
   id="path4"
   inkscape:connector-curvature="0" />
		</g>
		<marker
   id="mrkr10-6"
   class="st2"
   v:arrowType="10"
   v:arrowSize="2"
   v:setback="2.79"
   refX="2.79"
   orient="auto"
   markerUnits="strokeWidth"
   overflow="visible"
   style="overflow:visible;fill:#000000;fill-opacity:1;stroke:#000000;stroke-width:0.22935779;stroke-opacity:1">
			<use
   xlink:href="#lend10"
   transform="scale(4.36)"
   id="use7"
   x="0"
   y="0"
   width="100%"
   height="100%" />
		</marker>
	</defs>
	<g
   v:mID="5"
   v:index="3"
   v:groupContext="foregroundPage"
   id="g28"
   transform="translate(0,1.4305169e-6)">
		<title
   id="title11">секция</title>
		<v:pageProperties
   v:drawingScale="0.0393701"
   v:pageScale="0.0393701"
   v:drawingUnits="24"
   v:shadowOffsetX="9"
   v:shadowOffsetY="-9"
   v:shadowType="1" />
		<v:layer
   v:name="Соединительная линия"
   v:index="0" />
		
		
		
	<rect
   style="opacity:1;fill:none;fill-opacity:1;stroke:#000000;stroke-width:4.12501683;stroke-linecap:butt;stroke-linejoin:round;stroke-miterlimit:3;stroke-dasharray:none;stroke-dashoffset:0;stroke-opacity:1;paint-order:normal"
   id="rect833"
   width="134.7242"
   height="41.098667"
   x="1.3754351"
   y="1.5321743" /></g>
</svg>