{
    "Properties": {
        "4)Входы": {
            "inp0": "",
            "inp1": "",
            "inp2": "",
            "inp3": "",
            "inp4": "",
            "inp5": "",
            "inp6": "",
            "inp7": "",
            "inp8": "",
            "inp9": "",
            "inpa": "",
            "inpb": "",
            "inpc": "",
            "inpd": "",
            "inpe": "",
            "inpf": ""
        },
        "5)Выходы": {
            "out0": "",
            "out1": "",
            "out2": "",
            "out3": "",
            "out4": "",
            "out5": "",
            "out6": "",
            "out7": ""
        }
    }
}

